module bitbucket.org/azaher/runner

require (
	github.com/davecgh/go-spew v1.1.1 // indirect
	github.com/pmezard/go-difflib v1.0.0 // indirect
	github.com/stretchr/objx v0.1.1 // indirect
	github.com/stretchr/testify v1.2.2
)
